{
  "file_generated_by": "FlutterFire CLI",
  "purpose": "FirebaseAppID & ProjectID for this Firebase app in this directory",
  "GOOGLE_APP_ID": "1:631665658102:ios:b7a0a656d04bbb547bc4d7",
  "FIREBASE_PROJECT_ID": "fir-flutter-3d461",
  "GCM_SENDER_ID": "631665658102"
}